[
  {
    "id": 1,
    "name": "Категория",
    "title": "title",
    "description" : "description",
    "isActive": true,
    "news": [
      {
        "id": 1,
        "isActive": true,
        "title": "Новость 1",
        "image": "http://site-with.images/images/image-1.jpg",
        "description": "Описание",
        "text": "text",
        "date": "2015-05-12"
      },
      {
        "id": 2,
        "isActive": true,
        "title": "Новость 2",
        "image": "http://site-with.images/images/image-1.jpg",
        "description": "Описание",
        "text": "text",
        "date": "2015-05-12"
      }
    ],
    "subcategories": [
      {
        "id": 2,
        "name": "Категория",
        "title": "title",
        "description" : "description",
        "isActive": true,
        "news": [
          {
            "id": 3,
            "isActive": true,
            "title": "Новость 3",
            "image": "http://site-with.images/images/image-1.jpg",
            "description": "Описание",
            "text": "text",
            "date": "2015-05-12"
          },
          {
            "id": 4,
            "isActive": false,
            "title": "Новость 4",
            "image": "http://site-with.images/images/image-1.jpg",
            "description": "Описание",
            "text": "text",
            "date": "2015-05-12"
          }
        ],
        "subcategories": []
      },
      {
        "id": 3,
        "name": "Категория",
        "title": "title",
        "description" : "description",
        "isActive": false,
        "news": [
          {
            "id": 5,
            "isActive": true,
            "title": "Новость 5",
            "image": "http://site-with.images/images/image-1.jpg",
            "description": "Описание",
            "text": "text",
            "date": "2015-05-12"
          }

        ],
        "subcategories": []
      }
    ]
  }
]
